pubid,mid
1,1
1,2
1,3
2,4
2,5
3,6
3,7
4,9
4,8
5,10
5,11
5,30
6,12
6,14
6,13
7,15
7,13
7,14
8,17
8,16
8,18
9,19
9,20
9,21
9,22
10,23
10,24
10,25
11,4
11,5
12,1
13,15
14,8
15,26
15,17
16,19
17,27
17,24
18,6
18,28
18,29
19,12
19,14
19,13
20,10
20,31
20,30
20,26
21,32
21,33
21,34
22,35
22,36
22,37
22,14
23,38
23,39
23,40
23,41
24,42
24,43
24,44
24,18
25,45
25,46
25,47
25,73
26,51
26,50
26,49
26,48
27,52
27,53
27,54
27,55
27,56
27,22
28,57
28,58
28,59
28,60
28,61
29,62
29,63
29,64
30,67
30,66
30,65
31,1
31,68
31,69
32,4
33,6
34,8
35,70
35,71
35,36
35,30
36,12
36,72
37,15
37,9
38,16
38,7
39,19