pid,oid
1,34
12,36
20,35
9,33
12,35
3,33
15,34
3,36
17,36
18,34
6,35
9,36
20,34
2,36
17,33
17,40
9,40
1,40
2,40
4,40
12,40
20,40
3,40
18,41
21,41
5,41
8,41
14,42
6,43
9,43
17,43
1,44
2,44
3,44
4,44
6,44
9,44
12,44
15,44
18,44
21,44
5,44
11,45
14,45
17,45
20,45