auteur,date,premier_niveau,sujet,contenu
4,2024-04-28,true,"Critique de Jurassic Park","#JurassicPark est un classique du cinéma d'#aventure. La mise en scène de #Spielberg est magistrale et les effets spéciaux étaient révolutionnaires pour l'époque."
3,2024-04-29,true,"Discussion sur Inception","Que pensez-vous de l'intrigue complexe de #Inception ? J'ai trouvé que Christopher #Nolan a créé un univers fascinant avec des concepts de rêves superposés."
10,2024-04-30,true,"Appréciation de Pulp Fiction","#PulpFiction est un tour de force de la narration non linéaire. Les performances des acteurs sont exceptionnelles, surtout celle de Samuel L. #Jackson en Jules."
14,2024-04-30,true,"Interstellar : Une réflexion sur l'humanité","#Interstellar nous plonge dans un voyage interstellaire captivant tout en explorant des thèmes profonds comme l'#amour, la survie et la quête de connaissance."
20,2024-05-01,true,"Analyse de Kill Bill: Volume 1","#KillBill est une œuvre visuellement époustouflante de Quentin #Tarantino. Les scènes de #combat sont chorégraphiées avec une précision incroyable."
10,2024-05-01,true,"Réflexions sur Revolutionary Road","#RevolutionaryRoad est une étude de caractère poignante sur les rêves brisés et les illusions perdues. Les performances de Kate #Winslet et Leonardo #DiCaprio sont remarquables."
9,2024-05-01,true,"Titanic : Entre amour et tragédie","#Titanic est un mélodrame épique qui a marqué toute une génération. L'alchimie entre Leonardo #DiCaprio et Kate #Winslet est palpable à l'écran."
29,2024-05-01,true,"Le Seigneur des anneaux : Le Retour du roi, un chef-d'œuvre de l'épopée fantastique","#LeSeigneurDesAnneaux est une #trilogie épique, et Le Retour du Roi conclut brillamment cette saga avec des #batailles épiques et des moments émouvants."
30,2024-05-05,true,"Toy Story : Une révolution dans l'animation","#ToyStory a révolutionné l'#animation en introduisant les personnages de #Pixar dans un monde de jouets. C'est un mélange parfait d'#humour et d'émotion."
22,2024-05-05,true,"L'Impasse : Un polar intense","#LImpasse est un polar haletant qui plonge dans l'univers sombre de la mafia. #AlPacino livre une performance captivante dans le rôle de Carlito #Brigante."
2,2024-05-08,false,"Discussion sur Inception","Je suis d'accord, l'univers de #Inception est incroyablement complexe et intriguant. Christopher #Nolan a vraiment repoussé les limites de la narration cinématographique."
11,2024-05-08,false,"Critique de Jurassic Park","J'ai adoré #JurassicPark aussi ! Les effets spéciaux sont toujours impressionnants même des années après sa sortie."
1,2024-05-08,false,"Titanic : Entre amour et tragédie","La scène de la proue du bateau dans #Titanic reste l'une des plus iconiques de l'histoire du cinéma. C'est un film qui vous prend aux tripes."
35,2024-05-10,false,"Interstellar : Une réflexion sur l'humanité","L'exploration des concepts scientifiques et philosophiques dans #Interstellar en fait un film fascinant à regarder plusieurs fois pour en saisir toutes les subtilités."
25,2024-05-10,false,"Le Seigneur des anneaux : Le Retour du roi, un chef-d'œuvre de l'épopée fantastique","Le Retour du Roi conclut magnifiquement la #trilogie avec une #bataille finale épique et des adieux émouvants. Une œuvre magistrale."
5,2024-05-10,false,"Toy Story : Une révolution dans l'animation","#ToyStory a une place spéciale dans mon cœur. C'est un film qui transcende les générations et qui nous rappelle tous l'importance de l'amitié."
17,2024-05-13,false,"L'Impasse : Un polar intense","#AlPacino est sensationnel dans #LImpasse. C'est un film qui vous tient en haleine de la première à la dernière minute."
18,2024-05-15,true,"Pulp Fiction","#PulpFiction est un film unique en son genre. Chaque personnage et chaque scène semblent avoir une signification plus profonde, ce qui en fait un #classique du cinéma #contemporain."
19,2024-05-15,true,"Revolutionary Road","Le duo Kate #Winslet - Leonardo #DiCaprio est incroyable dans #RevolutionaryRoad. Leur chimie à l'écran est simplement captivante."
20,2024-05-16,false,"Analyse de Kill Bill: Volume 1","La scène de la #bataille des Crazy 88 dans #KillBill est légendaire. Quentin #Tarantino sait vraiment comment créer des scènes d'#action mémorables."
21,2024-05-18,true,"Le Diable s'habille en Prada","Meryl #Streep est tout simplement époustouflante dans #LeDiableShabilleEnPrada. Elle incarne parfaitement le rôle de Miranda #Priestly."
22,2024-05-18,true,"Django Unchained","#DjangoUnchained est un #western audacieux et percutant. Les performances de Jamie #Fox et Leonardo #DiCaprio sont mémorables."
23,2024-05-19,true,"Les Évadés","#LesEvadés est un chef-d'œuvre #intemporel. La relation entre Andy et Red est au cœur de cette histoire #emouvante sur l'#espoir et la rédemption."
24,2024-05-20,true,"Star Wars: Un nouvel espoir","#StarWars est bien plus qu'un simple film de #science-fiction. C'est devenu une #mythologie moderne avec des personnages emblématiques et des #batailles épiques."
25,2024-05-21,true,"Spider-Man","#SpiderMan est un #super-héros qui a marqué l'#enfance de nombreuses personnes. Tobey #Maguire a vraiment apporté une touche d'humanité au personnage."
26,2024-05-22,true,"Gone Girl","#GoneGirl est un #thriller psychologique brillamment réalisé. Rosamund #Pike livre une performance époustouflante dans le rôle d'Amy #Dunne."
27,2024-05-23,true,"Les Gardiens de la Galaxie","#LesGardiensDeLaGalaxie est un film qui mélange habilement #action, #humour et #emotion. Une bande-son #fantastique et des personnages attachants en font un #incontournable."
28,2024-05-25,true,"La Bataille d'Alger","#LaBatailleDAlger est un film #puissant qui explore les complexités de la #guerre et de la #résistance. Son impact sur le cinéma #politique est indéniable."
29,2024-05-25,true,"Edward aux mains d'argent","#EdwardAuxMainsDArgent est une œuvre visuellement saisissante et émouvante. Tim #Burton a créé un univers unique et #JohnnyDepp apporte une profondeur incroyable au personnage d'Edward."
30,2024-05-26,true,"À la recherche du bonheur","#ALaRechercheDuBonheur est un film inspirant qui nous rappelle l'importance de persévérer face à l'adversité. Will #Smith offre une performance émouvante en tant que #ChrisGardner."
1,2024-04-30,false,"Critique de Jurassic Park","Les performances des acteurs dans #JurassicPark sont également remarquables. Sam #Neill et Laura #Dern ont vraiment porté le film."
13,2024-05-09,false,"Discussion sur Inception","J'aime comment #Inception joue avec notre perception de la réalité. C'est un film qui vous fait réfléchir longtemps après l'avoir vu."
3,2024-05-01,false,"Appréciation de Pulp Fiction","La bande sonore de #PulpFiction est tout aussi emblématique que le film lui-même. Chaque chanson est parfaitement choisie."
4,2024-05-11,false,"Interstellar : Une réflexion sur l'humanité","L'utilisation des théories scientifiques dans #Interstellar est fascinante. C'est un film qui éduque autant qu'il divertit."
5,2024-05-20,false,"Analyse de Kill Bill: Volume 1","Quentin #Tarantino a vraiment su mélanger différents styles dans #KillBill, du #western au film de #samouraï. C'est un chef-d'œuvre."
6,2024-05-22,false,"Réflexions sur Revolutionary Road","#RevolutionaryRoad montre une réalité souvent ignorée des relations conjugales. C'est un film #brutal mais nécessaire."
7,2024-05-23,false,"Titanic : Entre amour et tragédie","#Titanic n'est pas seulement une histoire d'#amour, c'est aussi une critique sociale. La différence de classes est bien mise en avant."
8,2024-05-24,false,"Le Seigneur des anneaux : Le Retour du roi, un chef-d'œuvre de l'épopée fantastique","Les effets spéciaux dans #LeSeigneurDesAnneaux sont encore impressionnants aujourd'hui. Peter #Jackson a fait un travail incroyable."
9,2024-05-25,false,"Toy Story : Une révolution dans l'animation","#ToyStory a lancé une franchise incroyable. Chaque film apporte quelque chose de nouveau tout en restant fidèle à l'original."