fid,pid,nom_real,prenom_real
1,5,Spielberg,steven
2,11,Nolan,Christopher
3,8,Tarantino,Quentin
4,11,Nolan,Christopher
5,8,Tarantino,Quentin
7,,Cameron,James
8,,Jackson,Peter
9,,Lasseter,John
10,,De Palma,Brian
11,14,Scorsese,Martin
12,,Cameron,James
13,14,Scorsese,Martin
14,17,Burton,Tim
15,17,Burton,Tim
16,,Frankel,David
17,20,Fincher,David
18,20,Fincher,David
20,,Muccino,Gabriele
21,,Bird,Brad
22,,Unkrich,Lee
23,,Darabont,Frank
24,,Coppola,Francis Ford
25,,Stanton,Andrew
26,,Lucas,George
27,,Gunn,James
28,,Raimi,Sam
29,8,Tarantino,Quentin